benchmark,model,property,algorithm,seed,simulations,time,robustness,falsified,input,control points,exploration ratio,budget
NN,narmamaglev_v1,"□_[1.0, 18.0] (!(abs((Pos - Ref)) <= (0.005 + (0.03 * abs(Ref)))) ==> ◇_[0.0, 2.0] □_[0.0, 1.0] (abs((Pos - Ref)) <= (0.005 + (0.03 * abs(Ref)))))",adaptive,0,197,92,-0.00390594648503,yes,[0.0 2.5; 7.0 3.0; 14.0 1.0625; 21.0 1.0625],3 3 3 3 3 3,0.25,300
NN,narmamaglev_v1,"□_[1.0, 18.0] (!(abs((Pos - Ref)) <= (0.005 + (0.03 * abs(Ref)))) ==> ◇_[0.0, 2.0] □_[0.0, 1.0] (abs((Pos - Ref)) <= (0.005 + (0.03 * abs(Ref)))))",adaptive,6.72059386887525E+018,288,102,0.064964483332826,no,[0.0 2.5; 7.0 2.25; 14.0 3.0; 21.0 3.0],3 3 3 3 3 3,0.25,300
NN,narmamaglev_v1,"□_[1.0, 18.0] (!(abs((Pos - Ref)) <= (0.005 + (0.03 * abs(Ref)))) ==> ◇_[0.0, 2.0] □_[0.0, 1.0] (abs((Pos - Ref)) <= (0.005 + (0.03 * abs(Ref)))))",adaptive,7.44884389451876E+018,211,77,-5.22885100617126E-06,yes,[0.0 3.0; 7.0 3.0; 14.0 1.0625; 21.0 1.0625],3 3 3 3 3 3,0.25,300
NN,narmamaglev_v1,"□_[1.0, 18.0] (!(abs((Pos - Ref)) <= (0.005 + (0.03 * abs(Ref)))) ==> ◇_[0.0, 2.0] □_[0.0, 1.0] (abs((Pos - Ref)) <= (0.005 + (0.03 * abs(Ref)))))",adaptive,9.73405565405328E+017,296,112,Infinity,no,[],3 3 3 3 3 3,0.25,300
NN,narmamaglev_v1,"□_[1.0, 18.0] (!(abs((Pos - Ref)) <= (0.005 + (0.03 * abs(Ref)))) ==> ◇_[0.0, 2.0] □_[0.0, 1.0] (abs((Pos - Ref)) <= (0.005 + (0.03 * abs(Ref)))))",adaptive,-2.29749552775132E+017,163,65,-5.22885100617126E-06,yes,[0.0 3.0; 7.0 3.0; 14.0 1.0625; 21.0 1.0625],3 3 3 3 3 3,0.25,300
NN,narmamaglev_v1,"□_[1.0, 18.0] (!(abs((Pos - Ref)) <= (0.005 + (0.03 * abs(Ref)))) ==> ◇_[0.0, 2.0] □_[0.0, 1.0] (abs((Pos - Ref)) <= (0.005 + (0.03 * abs(Ref)))))",adaptive,-3.21255903170866E+018,278,99,0.030068261483399,no,[0.0 2.5625; 7.0 1.5; 14.0 1.5; 21.0 1.5],3 3 3 3 3 3,0.25,300
NN,narmamaglev_v1,"□_[1.0, 18.0] (!(abs((Pos - Ref)) <= (0.005 + (0.03 * abs(Ref)))) ==> ◇_[0.0, 2.0] □_[0.0, 1.0] (abs((Pos - Ref)) <= (0.005 + (0.03 * abs(Ref)))))",adaptive,-2.40875763699586E+018,298,102,0.054883306279597,no,[0.0 2.5; 7.0 3.0; 14.0 2.0; 21.0 2.0],3 3 3 3 3 3,0.25,300
NN,narmamaglev_v1,"□_[1.0, 18.0] (!(abs((Pos - Ref)) <= (0.005 + (0.03 * abs(Ref)))) ==> ◇_[0.0, 2.0] □_[0.0, 1.0] (abs((Pos - Ref)) <= (0.005 + (0.03 * abs(Ref)))))",adaptive,1.78181593548073E+018,227,81,-5.22885100617126E-06,yes,[0.0 3.0; 7.0 3.0; 14.0 1.0625; 21.0 1.0625],3 3 3 3 3 3,0.25,300
NN,narmamaglev_v1,"□_[1.0, 18.0] (!(abs((Pos - Ref)) <= (0.005 + (0.03 * abs(Ref)))) ==> ◇_[0.0, 2.0] □_[0.0, 1.0] (abs((Pos - Ref)) <= (0.005 + (0.03 * abs(Ref)))))",adaptive,-1.94290981028279E+018,297,107,-0.00390594648503,yes,[0.0 2.5; 7.0 3.0; 14.0 1.0625; 21.0 1.0625],3 3 3 3 3 3,0.25,300
NN,narmamaglev_v1,"□_[1.0, 18.0] (!(abs((Pos - Ref)) <= (0.005 + (0.03 * abs(Ref)))) ==> ◇_[0.0, 2.0] □_[0.0, 1.0] (abs((Pos - Ref)) <= (0.005 + (0.03 * abs(Ref)))))",adaptive,1.88486913633011E+018,155,56,-0.004936593292184,yes,[0.0 2.1875; 7.0 1.0; 14.0 1.0; 21.0 1.0],3 3 3 3 3 3,0.25,300
NN,narmamaglev_v1,"□_[1.0, 18.0] (!(abs((Pos - Ref)) <= (0.005 + (0.03 * abs(Ref)))) ==> ◇_[0.0, 2.0] □_[0.0, 1.0] (abs((Pos - Ref)) <= (0.005 + (0.03 * abs(Ref)))))",adaptive,8.38880766772697E+018,240,87,-5.22885100617126E-06,yes,[0.0 3.0; 7.0 3.0; 14.0 1.0625; 21.0 1.0625],3 3 3 3 3 3,0.25,300
NN,narmamaglev_v1,"□_[1.0, 18.0] (!(abs((Pos - Ref)) <= (0.005 + (0.03 * abs(Ref)))) ==> ◇_[0.0, 2.0] □_[0.0, 1.0] (abs((Pos - Ref)) <= (0.005 + (0.03 * abs(Ref)))))",adaptive,2.64353194104179E+018,298,108,0.021931552472637,no,[0.0 1.5; 7.0 1.5; 14.0 1.1875; 21.0 1.1875],3 3 3 3 3 3,0.25,300
NN,narmamaglev_v1,"□_[1.0, 18.0] (!(abs((Pos - Ref)) <= (0.005 + (0.03 * abs(Ref)))) ==> ◇_[0.0, 2.0] □_[0.0, 1.0] (abs((Pos - Ref)) <= (0.005 + (0.03 * abs(Ref)))))",adaptive,-3.10861814061593E+018,236,87,-5.22885100617126E-06,yes,[0.0 3.0; 7.0 3.0; 14.0 1.0625; 21.0 1.0625],3 3 3 3 3 3,0.25,300
NN,narmamaglev_v1,"□_[1.0, 18.0] (!(abs((Pos - Ref)) <= (0.005 + (0.03 * abs(Ref)))) ==> ◇_[0.0, 2.0] □_[0.0, 1.0] (abs((Pos - Ref)) <= (0.005 + (0.03 * abs(Ref)))))",adaptive,-8.37684205660606E+018,294,2516,0.028412752914475,no,[0.0 3.0; 7.0 1.5; 14.0 1.875; 21.0 1.875],3 3 3 3 3 3,0.25,300
NN,narmamaglev_v1,"□_[1.0, 18.0] (!(abs((Pos - Ref)) <= (0.005 + (0.03 * abs(Ref)))) ==> ◇_[0.0, 2.0] □_[0.0, 1.0] (abs((Pos - Ref)) <= (0.005 + (0.03 * abs(Ref)))))",adaptive,-8.45812843345708E+018,284,100,Infinity,no,[],3 3 3 3 3 3,0.25,300
NN,narmamaglev_v1,"□_[1.0, 18.0] (!(abs((Pos - Ref)) <= (0.005 + (0.03 * abs(Ref)))) ==> ◇_[0.0, 2.0] □_[0.0, 1.0] (abs((Pos - Ref)) <= (0.005 + (0.03 * abs(Ref)))))",adaptive,-4.2180755718009E+018,286,100,Infinity,no,[],3 3 3 3 3 3,0.25,300
NN,narmamaglev_v1,"□_[1.0, 18.0] (!(abs((Pos - Ref)) <= (0.005 + (0.03 * abs(Ref)))) ==> ◇_[0.0, 2.0] □_[0.0, 1.0] (abs((Pos - Ref)) <= (0.005 + (0.03 * abs(Ref)))))",adaptive,-7.35449078227775E+018,295,103,0.00976652743471,no,[0.0 1.0; 7.0 1.0; 14.0 1.5625; 21.0 1.5625],3 3 3 3 3 3,0.25,300
NN,narmamaglev_v1,"□_[1.0, 18.0] (!(abs((Pos - Ref)) <= (0.005 + (0.03 * abs(Ref)))) ==> ◇_[0.0, 2.0] □_[0.0, 1.0] (abs((Pos - Ref)) <= (0.005 + (0.03 * abs(Ref)))))",adaptive,1.54139468851836E+018,264,91,Infinity,no,[],3 3 3 3 3 3,0.25,300
NN,narmamaglev_v1,"□_[1.0, 18.0] (!(abs((Pos - Ref)) <= (0.005 + (0.03 * abs(Ref)))) ==> ◇_[0.0, 2.0] □_[0.0, 1.0] (abs((Pos - Ref)) <= (0.005 + (0.03 * abs(Ref)))))",adaptive,3.70248991596921E+018,298,103,0.02470839371774,no,[0.0 1.25; 7.0 2.5; 14.0 2.5; 21.0 2.5],3 3 3 3 3 3,0.25,300
NN,narmamaglev_v1,"□_[1.0, 18.0] (!(abs((Pos - Ref)) <= (0.005 + (0.03 * abs(Ref)))) ==> ◇_[0.0, 2.0] □_[0.0, 1.0] (abs((Pos - Ref)) <= (0.005 + (0.03 * abs(Ref)))))",adaptive,-6.39755266280882E+017,290,101,0.044364056286783,no,[0.0 3.0; 7.0 2.0; 14.0 1.75; 21.0 1.75],3 3 3 3 3 3,0.25,300
NN,narmamaglev_v1,"□_[1.0, 18.0] (!(abs((Pos - Ref)) <= (0.005 + (0.03 * abs(Ref)))) ==> ◇_[0.0, 2.0] □_[0.0, 1.0] (abs((Pos - Ref)) <= (0.005 + (0.03 * abs(Ref)))))",adaptive,-2.89138427946892E+018,187,65,-5.22885100617126E-06,yes,[0.0 3.0; 7.0 3.0; 14.0 1.0625; 21.0 1.0625],3 3 3 3 3 3,0.25,300
NN,narmamaglev_v1,"□_[1.0, 18.0] (!(abs((Pos - Ref)) <= (0.005 + (0.03 * abs(Ref)))) ==> ◇_[0.0, 2.0] □_[0.0, 1.0] (abs((Pos - Ref)) <= (0.005 + (0.03 * abs(Ref)))))",adaptive,2.55068151714183E+018,33,12,-0.004973348042669,yes,[0.0 1.75; 7.0 2.75; 14.0 1.0; 21.0 1.0],3 3 3 3 3 3,0.25,300
NN,narmamaglev_v1,"□_[1.0, 18.0] (!(abs((Pos - Ref)) <= (0.005 + (0.03 * abs(Ref)))) ==> ◇_[0.0, 2.0] □_[0.0, 1.0] (abs((Pos - Ref)) <= (0.005 + (0.03 * abs(Ref)))))",adaptive,-2.51109406529746E+018,300,105,0.028412752914475,no,[0.0 3.0; 7.0 1.5; 14.0 3.0; 21.0 3.0],3 3 3 3 3 3,0.25,300
NN,narmamaglev_v1,"□_[1.0, 18.0] (!(abs((Pos - Ref)) <= (0.005 + (0.03 * abs(Ref)))) ==> ◇_[0.0, 2.0] □_[0.0, 1.0] (abs((Pos - Ref)) <= (0.005 + (0.03 * abs(Ref)))))",adaptive,5.9621136431821E+018,283,99,0.038051379992,no,[0.0 3.0; 7.0 1.875; 14.0 1.625; 21.0 1.625],3 3 3 3 3 3,0.25,300
NN,narmamaglev_v1,"□_[1.0, 18.0] (!(abs((Pos - Ref)) <= (0.005 + (0.03 * abs(Ref)))) ==> ◇_[0.0, 2.0] □_[0.0, 1.0] (abs((Pos - Ref)) <= (0.005 + (0.03 * abs(Ref)))))",adaptive,-5.28095554711829E+018,300,108,0.05334666406094,no,[0.0 3.0; 7.0 3.0; 14.0 1.75; 21.0 1.75],3 3 3 3 3 3,0.25,300
NN,narmamaglev_v1,"□_[1.0, 18.0] (!(abs((Pos - Ref)) <= (0.005 + (0.03 * abs(Ref)))) ==> ◇_[0.0, 2.0] □_[0.0, 1.0] (abs((Pos - Ref)) <= (0.005 + (0.03 * abs(Ref)))))",adaptive,-4.88665096869558E+018,233,80,-5.22885100617126E-06,yes,[0.0 3.0; 7.0 3.0; 14.0 1.0625; 21.0 1.0625],3 3 3 3 3 3,0.25,300
NN,narmamaglev_v1,"□_[1.0, 18.0] (!(abs((Pos - Ref)) <= (0.005 + (0.03 * abs(Ref)))) ==> ◇_[0.0, 2.0] □_[0.0, 1.0] (abs((Pos - Ref)) <= (0.005 + (0.03 * abs(Ref)))))",adaptive,-3.69734051073238E+018,285,100,0.052288060030849,no,[0.0 3.0; 7.0 2.0; 14.0 2.875; 21.0 2.875],3 3 3 3 3 3,0.25,300
NN,narmamaglev_v1,"□_[1.0, 18.0] (!(abs((Pos - Ref)) <= (0.005 + (0.03 * abs(Ref)))) ==> ◇_[0.0, 2.0] □_[0.0, 1.0] (abs((Pos - Ref)) <= (0.005 + (0.03 * abs(Ref)))))",adaptive,3.21236322933175E+018,221,76,-0.008767879351858,yes,[0.0 2.5; 7.0 2.375; 14.0 1.0; 21.0 1.0],3 3 3 3 3 3,0.25,300
NN,narmamaglev_v1,"□_[1.0, 18.0] (!(abs((Pos - Ref)) <= (0.005 + (0.03 * abs(Ref)))) ==> ◇_[0.0, 2.0] □_[0.0, 1.0] (abs((Pos - Ref)) <= (0.005 + (0.03 * abs(Ref)))))",adaptive,-1.35027468655586E+018,224,77,-0.008767879351858,yes,[0.0 2.5; 7.0 2.375; 14.0 1.0; 21.0 1.0],3 3 3 3 3 3,0.25,300
NN,narmamaglev_v1,"□_[1.0, 18.0] (!(abs((Pos - Ref)) <= (0.005 + (0.03 * abs(Ref)))) ==> ◇_[0.0, 2.0] □_[0.0, 1.0] (abs((Pos - Ref)) <= (0.005 + (0.03 * abs(Ref)))))",adaptive,-6.99518266341058E+018,107,37,-5.22885100617126E-06,yes,[0.0 3.0; 7.0 3.0; 14.0 1.0625; 21.0 1.0625],3 3 3 3 3 3,0.25,300
NN,narmamaglev_v1,"□_[1.0, 18.0] (!(abs((Pos - Ref)) <= (0.005 + (0.03 * abs(Ref)))) ==> ◇_[0.0, 2.0] □_[0.0, 1.0] (abs((Pos - Ref)) <= (0.005 + (0.03 * abs(Ref)))))",adaptive,5.53206344325593E+018,300,104,0.031444988911245,no,[0.0 2.0; 7.0 3.0; 14.0 1.3125; 21.0 1.3125],3 3 3 3 3 3,0.25,300
NN,narmamaglev_v1,"□_[1.0, 18.0] (!(abs((Pos - Ref)) <= (0.005 + (0.03 * abs(Ref)))) ==> ◇_[0.0, 2.0] □_[0.0, 1.0] (abs((Pos - Ref)) <= (0.005 + (0.03 * abs(Ref)))))",adaptive,-1.06570267688445E+018,118,42,-5.22885100617126E-06,yes,[0.0 3.0; 7.0 3.0; 14.0 1.0625; 21.0 1.0625],3 3 3 3 3 3,0.25,300
NN,narmamaglev_v1,"□_[1.0, 18.0] (!(abs((Pos - Ref)) <= (0.005 + (0.03 * abs(Ref)))) ==> ◇_[0.0, 2.0] □_[0.0, 1.0] (abs((Pos - Ref)) <= (0.005 + (0.03 * abs(Ref)))))",adaptive,1.72043729798462E+018,138,52,-5.22885100617126E-06,yes,[0.0 3.0; 7.0 3.0; 14.0 1.0625; 21.0 1.0625],3 3 3 3 3 3,0.25,300
NN,narmamaglev_v1,"□_[1.0, 18.0] (!(abs((Pos - Ref)) <= (0.005 + (0.03 * abs(Ref)))) ==> ◇_[0.0, 2.0] □_[0.0, 1.0] (abs((Pos - Ref)) <= (0.005 + (0.03 * abs(Ref)))))",adaptive,-7.58567545406824E+018,289,103,0.055050968515742,no,[0.0 2.0; 7.0 2.0; 14.0 2.6875; 21.0 2.6875],3 3 3 3 3 3,0.25,300
NN,narmamaglev_v1,"□_[1.0, 18.0] (!(abs((Pos - Ref)) <= (0.005 + (0.03 * abs(Ref)))) ==> ◇_[0.0, 2.0] □_[0.0, 1.0] (abs((Pos - Ref)) <= (0.005 + (0.03 * abs(Ref)))))",adaptive,4.79302381707142E+018,203,70,-5.22885100617126E-06,yes,[0.0 3.0; 7.0 3.0; 14.0 1.0625; 21.0 1.0625],3 3 3 3 3 3,0.25,300
NN,narmamaglev_v1,"□_[1.0, 18.0] (!(abs((Pos - Ref)) <= (0.005 + (0.03 * abs(Ref)))) ==> ◇_[0.0, 2.0] □_[0.0, 1.0] (abs((Pos - Ref)) <= (0.005 + (0.03 * abs(Ref)))))",adaptive,4.62565658213401E+018,300,105,0.053686208751632,no,[0.0 2.0; 7.0 2.0; 14.0 1.9375; 21.0 1.9375],3 3 3 3 3 3,0.25,300
NN,narmamaglev_v1,"□_[1.0, 18.0] (!(abs((Pos - Ref)) <= (0.005 + (0.03 * abs(Ref)))) ==> ◇_[0.0, 2.0] □_[0.0, 1.0] (abs((Pos - Ref)) <= (0.005 + (0.03 * abs(Ref)))))",adaptive,5.0273273293187E+018,223,78,-5.22885100617126E-06,yes,[0.0 3.0; 7.0 3.0; 14.0 1.0625; 21.0 1.0625],3 3 3 3 3 3,0.25,300
NN,narmamaglev_v1,"□_[1.0, 18.0] (!(abs((Pos - Ref)) <= (0.005 + (0.03 * abs(Ref)))) ==> ◇_[0.0, 2.0] □_[0.0, 1.0] (abs((Pos - Ref)) <= (0.005 + (0.03 * abs(Ref)))))",adaptive,-3.59535310011351E+018,136,47,-5.22885100617126E-06,yes,[0.0 3.0; 7.0 3.0; 14.0 1.0625; 21.0 1.0625],3 3 3 3 3 3,0.25,300
NN,narmamaglev_v1,"□_[1.0, 18.0] (!(abs((Pos - Ref)) <= (0.005 + (0.03 * abs(Ref)))) ==> ◇_[0.0, 2.0] □_[0.0, 1.0] (abs((Pos - Ref)) <= (0.005 + (0.03 * abs(Ref)))))",adaptive,-6.83132493452162E+018,279,97,0.004022467634916,no,[0.0 2.5; 7.0 1.0; 14.0 1.3125; 21.0 1.3125],3 3 3 3 3 3,0.25,300
NN,narmamaglev_v1,"□_[1.0, 18.0] (!(abs((Pos - Ref)) <= (0.005 + (0.03 * abs(Ref)))) ==> ◇_[0.0, 2.0] □_[0.0, 1.0] (abs((Pos - Ref)) <= (0.005 + (0.03 * abs(Ref)))))",adaptive,9.19882495063122E+018,297,110,0.004022467634916,no,[0.0 2.5; 7.0 1.0; 14.0 2.625; 21.0 2.625],3 3 3 3 3 3,0.25,300
NN,narmamaglev_v1,"□_[1.0, 18.0] (!(abs((Pos - Ref)) <= (0.005 + (0.03 * abs(Ref)))) ==> ◇_[0.0, 2.0] □_[0.0, 1.0] (abs((Pos - Ref)) <= (0.005 + (0.03 * abs(Ref)))))",adaptive,-8.3508870450461E+018,134,49,-0.001437432195522,yes,[0.0 2.125; 7.0 1.0625; 14.0 2.0; 21.0 2.0],3 3 3 3 3 3,0.25,300
NN,narmamaglev_v1,"□_[1.0, 18.0] (!(abs((Pos - Ref)) <= (0.005 + (0.03 * abs(Ref)))) ==> ◇_[0.0, 2.0] □_[0.0, 1.0] (abs((Pos - Ref)) <= (0.005 + (0.03 * abs(Ref)))))",adaptive,-2.91485684344991E+018,125,43,-5.22885100617126E-06,yes,[0.0 3.0; 7.0 3.0; 14.0 1.0625; 21.0 1.0625],3 3 3 3 3 3,0.25,300
NN,narmamaglev_v1,"□_[1.0, 18.0] (!(abs((Pos - Ref)) <= (0.005 + (0.03 * abs(Ref)))) ==> ◇_[0.0, 2.0] □_[0.0, 1.0] (abs((Pos - Ref)) <= (0.005 + (0.03 * abs(Ref)))))",adaptive,1.34315639294042E+018,280,98,0.00976652743471,no,[0.0 1.0; 7.0 3.0; 14.0 2.375; 21.0 2.375],3 3 3 3 3 3,0.25,300
NN,narmamaglev_v1,"□_[1.0, 18.0] (!(abs((Pos - Ref)) <= (0.005 + (0.03 * abs(Ref)))) ==> ◇_[0.0, 2.0] □_[0.0, 1.0] (abs((Pos - Ref)) <= (0.005 + (0.03 * abs(Ref)))))",adaptive,-4.06013965868367E+018,135,47,-8.12537127887689E-05,yes,[0.0 3.0; 7.0 1.5; 14.0 1.0625; 21.0 1.0625],3 3 3 3 3 3,0.25,300
NN,narmamaglev_v1,"□_[1.0, 18.0] (!(abs((Pos - Ref)) <= (0.005 + (0.03 * abs(Ref)))) ==> ◇_[0.0, 2.0] □_[0.0, 1.0] (abs((Pos - Ref)) <= (0.005 + (0.03 * abs(Ref)))))",adaptive,-3.28815919082905E+018,281,98,Infinity,no,[],3 3 3 3 3 3,0.25,300
NN,narmamaglev_v1,"□_[1.0, 18.0] (!(abs((Pos - Ref)) <= (0.005 + (0.03 * abs(Ref)))) ==> ◇_[0.0, 2.0] □_[0.0, 1.0] (abs((Pos - Ref)) <= (0.005 + (0.03 * abs(Ref)))))",adaptive,3.1140723205466E+018,216,75,-8.12537127887689E-05,yes,[0.0 3.0; 7.0 1.5; 14.0 1.0625; 21.0 1.0625],3 3 3 3 3 3,0.25,300
NN,narmamaglev_v1,"□_[1.0, 18.0] (!(abs((Pos - Ref)) <= (0.005 + (0.03 * abs(Ref)))) ==> ◇_[0.0, 2.0] □_[0.0, 1.0] (abs((Pos - Ref)) <= (0.005 + (0.03 * abs(Ref)))))",adaptive,-2.22026258340957E+018,286,101,0.008365967461909,no,[0.0 2.75; 7.0 3.0; 14.0 1.0; 21.0 1.0],3 3 3 3 3 3,0.25,300
NN,narmamaglev_v1,"□_[1.0, 18.0] (!(abs((Pos - Ref)) <= (0.005 + (0.03 * abs(Ref)))) ==> ◇_[0.0, 2.0] □_[0.0, 1.0] (abs((Pos - Ref)) <= (0.005 + (0.03 * abs(Ref)))))",adaptive,7.93953089602618E+018,37,13,-5.22885100617126E-06,yes,[0.0 3.0; 7.0 3.0; 14.0 1.0625; 21.0 1.0625],3 3 3 3 3 3,0.25,300
NN,narmamaglev_v1,"□_[1.0, 18.0] (!(abs((Pos - Ref)) <= (0.005 + (0.03 * abs(Ref)))) ==> ◇_[0.0, 2.0] □_[0.0, 1.0] (abs((Pos - Ref)) <= (0.005 + (0.03 * abs(Ref)))))",adaptive,-7.37817387868666E+018,155,54,-5.22885100617126E-06,yes,[0.0 3.0; 7.0 3.0; 14.0 1.0625; 21.0 1.0625],3 3 3 3 3 3,0.25,300
NN,narmamaglev_v1,"□_[1.0, 18.0] (!(abs((Pos - Ref)) <= (0.005 + (0.03 * abs(Ref)))) ==> ◇_[0.0, 2.0] □_[0.0, 1.0] (abs((Pos - Ref)) <= (0.005 + (0.03 * abs(Ref)))))",adaptive,-5.05057613120141E+018,250,87,-0.002004047313343,yes,[0.0 1.5; 7.0 1.0; 14.0 1.0625; 21.0 1.0625],3 3 3 3 3 3,0.25,300
